%YAML 1.1
%TAG !u! tag:unity3d.com,2011:
--- !u!78 &1
TagManager:
  serializedVersion: 2
  tags:
  - Bike
  - EndOfLevel
  - GameOver
  - Persona
  - MOTO
  - FINISH
  - Suelo
  - bloqueinterrogacion
  - moneda
  - bloquevacio
  - powerup
  - seta
  - superseta
  - bloquepiedra
  - DeadZone
  layers:
  - Default
  - TransparentFX
  - Ignore Raycast
  - 
  - Water
  - UI
  - 
  - 
  - tierra
  - 
  - 
  - 
  - 
  - 
  - 
  - 
  - 
  - 
  - 
  - 
  - 
  - 
  - 
  - 
  - 
  - 
  - 
  - 
  - 
  - 
  - 
  - 
  m_SortingLayers:
  - name: Default
    uniqueID: 0
    locked: 0
